{"pagination_info":{"total":10000,"limit_per_page":50,"total_pages":200,"current_page":1,"next_page":2,"prev_page":null},"cats":[{"id":1,"name":"Tifany","category":"sub-zero","price":99128,"image_url":"https://storage.googleapis.com/ck-kitty-image/0x06012c8cf97bead5deae237070f9587f8e7a266d/38293.svg","available":true,"created_at":"2022-10-14T17:00:31.661Z","updated_at":"2022-10-14T17:00:31.661Z"},{"id":2,"name":"Royce","category":"slow","price":80645,"image_url":"https://storage.googleapis.com/ck-kitty-image/0x06012c8cf97bead5deae237070f9587f8e7a266d/165773.svg","available":true,"created_at":"2022-10-14T17:00:31.706Z","updated_at":"2022-10-14T17:00:31.706Z"},{"id":3,"name":"Enid","category":"middle","price":54134,"image_url":"https://storage.googleapis.com/ck-kitty-image/0x06012c8cf97bead5deae237070f9587f8e7a266d/359154.svg","available":true,"created_at":"2022-10-14T17:00:31.717Z","updated_at":"2022-10-14T17:00:31.717Z"},{"id":4,"name":"Enid","category":"sub-zero","price":24126,"image_url":"https://storage.googleapis.com/ck-kitty-image/0x06012c8cf97bead5deae237070f9587f8e7a266d/227916.svg","available":true,"created_at":"2022-10-14T17:00:31.726Z","updated_at":"2022-10-14T17:00:31.726Z"},{"id":5,"name":"Deneen","category":"middle","price":72038,"image_url":"https://storage.googleapis.com/ck-kitty-image/0x06012c8cf97bead5deae237070f9587f8e7a266d/128665.svg","available":true,"created_at":"2022-10-14T17:00:31.752Z","updated_at":"2022-10-14T17:00:31.752Z"},{"id":6,"name":"Dannie","category":"slow","price":69565,"image_url":"https://storage.googleapis.com/ck-kitty-image/0x06012c8cf97bead5deae237070f9587f8e7a266d/199154.svg","available":true,"created_at":"2022-10-14T17:00:31.779Z","updated_at":"2022-10-14T17:00:31.779Z"},{"id":7,"name":"Johnathon","category":"sub-zero","price":95107,"image_url":"https://storage.googleapis.com/ck-kitty-image/0x06012c8cf97bead5deae237070f9587f8e7a266d/103910.svg","available":true,"created_at":"2022-10-14T17:00:31.790Z","updated_at":"2022-10-14T17:00:31.790Z"},{"id":8,"name":"Star","category":"sub-zero","price":70996,"image_url":"https://storage.googleapis.com/ck-kitty-image/0x06012c8cf97bead5deae237070f9587f8e7a266d/151212.svg","available":true,"created_at":"2022-10-14T17:00:31.798Z","updated_at":"2022-10-14T17:00:31.798Z"},{"id":9,"name":"Erik","category":"slow","price":67444,"image_url":"https://storage.googleapis.com/ck-kitty-image/0x06012c8cf97bead5deae237070f9587f8e7a266d/161512.svg","available":true,"created_at":"2022-10-14T17:00:31.815Z","updated_at":"2022-10-14T17:00:31.815Z"},{"id":10,"name":"Milissa","category":"sub-zero","price":86187,"image_url":"https://storage.googleapis.com/ck-kitty-image/0x06012c8cf97bead5deae237070f9587f8e7a266d/307541.svg","available":true,"created_at":"2022-10-14T17:00:31.823Z","updated_at":"2022-10-14T17:00:31.823Z"},{"id":11,"name":"Prince","category":"fast","price":85063,"image_url":"https://storage.googleapis.com/ck-kitty-image/0x06012c8cf97bead5deae237070f9587f8e7a266d/16845.svg","available":true,"created_at":"2022-10-14T17:00:31.833Z","updated_at":"2022-10-14T17:00:31.833Z"},{"id":12,"name":"Mittie","category":"middle","price":18325,"image_url":"https://storage.googleapis.com/ck-kitty-image/0x06012c8cf97bead5deae237070f9587f8e7a266d/122886.svg","available":true,"created_at":"2022-10-14T17:00:31.842Z","updated_at":"2022-10-14T17:00:31.842Z"},{"id":13,"name":"Darcel","category":"fast","price":34935,"image_url":"https://storage.googleapis.com/ck-kitty-image/0x06012c8cf97bead5deae237070f9587f8e7a266d/347773.svg","available":true,"created_at":"2022-10-14T17:00:31.850Z","updated_at":"2022-10-14T17:00:31.850Z"},{"id":14,"name":"Homer","category":"fast","price":7309,"image_url":"https://storage.googleapis.com/ck-kitty-image/0x06012c8cf97bead5deae237070f9587f8e7a266d/59892.svg","available":true,"created_at":"2022-10-14T17:00:31.858Z","updated_at":"2022-10-14T17:00:31.858Z"},{"id":15,"name":"Shera","category":"fast","price":67961,"image_url":"https://storage.googleapis.com/ck-kitty-image/0x06012c8cf97bead5deae237070f9587f8e7a266d/212014.svg","available":true,"created_at":"2022-10-14T17:00:31.867Z","updated_at":"2022-10-14T17:00:31.867Z"},{"id":16,"name":"Shera","category":"fast","price":41753,"image_url":"https://storage.googleapis.com/ck-kitty-image/0x06012c8cf97bead5deae237070f9587f8e7a266d/351310.svg","available":true,"created_at":"2022-10-14T17:00:31.874Z","updated_at":"2022-10-14T17:00:31.874Z"},{"id":17,"name":"Enid","category":"slow","price":78274,"image_url":"https://storage.googleapis.com/ck-kitty-image/0x06012c8cf97bead5deae237070f9587f8e7a266d/362506.svg","available":true,"created_at":"2022-10-14T17:00:31.883Z","updated_at":"2022-10-14T17:00:31.883Z"},{"id":18,"name":"Maxima","category":"middle","price":76683,"image_url":"https://storage.googleapis.com/ck-kitty-image/0x06012c8cf97bead5deae237070f9587f8e7a266d/9650.svg","available":true,"created_at":"2022-10-14T17:00:31.892Z","updated_at":"2022-10-14T17:00:31.892Z"},{"id":19,"name":"Clemencia","category":"sub-zero","price":59072,"image_url":"https://storage.googleapis.com/ck-kitty-image/0x06012c8cf97bead5deae237070f9587f8e7a266d/220960.svg","available":true,"created_at":"2022-10-14T17:00:31.900Z","updated_at":"2022-10-14T17:00:31.900Z"},{"id":20,"name":"Lesli","category":"slow","price":97238,"image_url":"https://storage.googleapis.com/ck-kitty-image/0x06012c8cf97bead5deae237070f9587f8e7a266d/222469.svg","available":true,"created_at":"2022-10-14T17:00:31.907Z","updated_at":"2022-10-14T17:00:31.907Z"},{"id":21,"name":"Roslyn","category":"slow","price":94794,"image_url":"https://storage.googleapis.com/ck-kitty-image/0x06012c8cf97bead5deae237070f9587f8e7a266d/42557.svg","available":true,"created_at":"2022-10-14T17:00:31.915Z","updated_at":"2022-10-14T17:00:31.915Z"},{"id":22,"name":"Deneen","category":"fast","price":15824,"image_url":"https://storage.googleapis.com/ck-kitty-image/0x06012c8cf97bead5deae237070f9587f8e7a266d/113279.svg","available":true,"created_at":"2022-10-14T17:00:31.926Z","updated_at":"2022-10-14T17:00:31.926Z"},{"id":23,"name":"Maxima","category":"slow","price":65799,"image_url":"https://storage.googleapis.com/ck-kitty-image/0x06012c8cf97bead5deae237070f9587f8e7a266d/112690.svg","available":true,"created_at":"2022-10-14T17:00:31.933Z","updated_at":"2022-10-14T17:00:31.933Z"},{"id":24,"name":"Charissa","category":"middle","price":69367,"image_url":"https://storage.googleapis.com/ck-kitty-image/0x06012c8cf97bead5deae237070f9587f8e7a266d/33974.svg","available":true,"created_at":"2022-10-14T17:00:31.949Z","updated_at":"2022-10-14T17:00:31.949Z"},{"id":25,"name":"Erik","category":"fast","price":43170,"image_url":"https://storage.googleapis.com/ck-kitty-image/0x06012c8cf97bead5deae237070f9587f8e7a266d/385710.svg","available":true,"created_at":"2022-10-14T17:00:31.957Z","updated_at":"2022-10-14T17:00:31.957Z"},{"id":26,"name":"Eleonora","category":"middle","price":98164,"image_url":"https://storage.googleapis.com/ck-kitty-image/0x06012c8cf97bead5deae237070f9587f8e7a266d/290317.svg","available":true,"created_at":"2022-10-14T17:00:31.964Z","updated_at":"2022-10-14T17:00:31.964Z"},{"id":27,"name":"Star","category":"sub-zero","price":64124,"image_url":"https://storage.googleapis.com/ck-kitty-image/0x06012c8cf97bead5deae237070f9587f8e7a266d/157281.svg","available":true,"created_at":"2022-10-14T17:00:31.970Z","updated_at":"2022-10-14T17:00:31.970Z"},{"id":28,"name":"Fernande","category":"slow","price":83959,"image_url":"https://storage.googleapis.com/ck-kitty-image/0x06012c8cf97bead5deae237070f9587f8e7a266d/244088.svg","available":true,"created_at":"2022-10-14T17:00:31.977Z","updated_at":"2022-10-14T17:00:31.977Z"},{"id":29,"name":"Janetta","category":"sub-zero","price":51467,"image_url":"https://storage.googleapis.com/ck-kitty-image/0x06012c8cf97bead5deae237070f9587f8e7a266d/308714.svg","available":true,"created_at":"2022-10-14T17:00:31.985Z","updated_at":"2022-10-14T17:00:31.985Z"},{"id":30,"name":"Erik","category":"sub-zero","price":82157,"image_url":"https://storage.googleapis.com/ck-kitty-image/0x06012c8cf97bead5deae237070f9587f8e7a266d/268185.svg","available":true,"created_at":"2022-10-14T17:00:31.992Z","updated_at":"2022-10-14T17:00:31.992Z"},{"id":31,"name":"Tifany","category":"middle","price":10129,"image_url":"https://storage.googleapis.com/ck-kitty-image/0x06012c8cf97bead5deae237070f9587f8e7a266d/225212.svg","available":true,"created_at":"2022-10-14T17:00:32.000Z","updated_at":"2022-10-14T17:00:32.000Z"},{"id":32,"name":"Tatiana","category":"sub-zero","price":59060,"image_url":"https://storage.googleapis.com/ck-kitty-image/0x06012c8cf97bead5deae237070f9587f8e7a266d/109959.svg","available":true,"created_at":"2022-10-14T17:00:32.008Z","updated_at":"2022-10-14T17:00:32.008Z"},{"id":33,"name":"Mittie","category":"slow","price":89238,"image_url":"https://storage.googleapis.com/ck-kitty-image/0x06012c8cf97bead5deae237070f9587f8e7a266d/95505.svg","available":true,"created_at":"2022-10-14T17:00:32.016Z","updated_at":"2022-10-14T17:00:32.016Z"},{"id":34,"name":"Shera","category":"fast","price":73780,"image_url":"https://storage.googleapis.com/ck-kitty-image/0x06012c8cf97bead5deae237070f9587f8e7a266d/258696.svg","available":true,"created_at":"2022-10-14T17:00:32.023Z","updated_at":"2022-10-14T17:00:32.023Z"},{"id":35,"name":"Scottie","category":"middle","price":25852,"image_url":"https://storage.googleapis.com/ck-kitty-image/0x06012c8cf97bead5deae237070f9587f8e7a266d/23659.svg","available":true,"created_at":"2022-10-14T17:00:32.030Z","updated_at":"2022-10-14T17:00:32.030Z"},{"id":36,"name":"Dannie","category":"fast","price":24416,"image_url":"https://storage.googleapis.com/ck-kitty-image/0x06012c8cf97bead5deae237070f9587f8e7a266d/35030.svg","available":true,"created_at":"2022-10-14T17:00:32.038Z","updated_at":"2022-10-14T17:00:32.038Z"},{"id":37,"name":"Milissa","category":"middle","price":44578,"image_url":"https://storage.googleapis.com/ck-kitty-image/0x06012c8cf97bead5deae237070f9587f8e7a266d/11293.svg","available":true,"created_at":"2022-10-14T17:00:32.052Z","updated_at":"2022-10-14T17:00:32.052Z"},{"id":38,"name":"Roslyn","category":"middle","price":43221,"image_url":"https://storage.googleapis.com/ck-kitty-image/0x06012c8cf97bead5deae237070f9587f8e7a266d/223041.svg","available":true,"created_at":"2022-10-14T17:00:32.060Z","updated_at":"2022-10-14T17:00:32.060Z"},{"id":39,"name":"Jacob","category":"fast","price":47361,"image_url":"https://storage.googleapis.com/ck-kitty-image/0x06012c8cf97bead5deae237070f9587f8e7a266d/281799.svg","available":true,"created_at":"2022-10-14T17:00:32.066Z","updated_at":"2022-10-14T17:00:32.066Z"},{"id":40,"name":"Royce","category":"fast","price":78372,"image_url":"https://storage.googleapis.com/ck-kitty-image/0x06012c8cf97bead5deae237070f9587f8e7a266d/363688.svg","available":true,"created_at":"2022-10-14T17:00:32.080Z","updated_at":"2022-10-14T17:00:32.080Z"},{"id":41,"name":"Judson","category":"sub-zero","price":57999,"image_url":"https://storage.googleapis.com/ck-kitty-image/0x06012c8cf97bead5deae237070f9587f8e7a266d/352151.svg","available":true,"created_at":"2022-10-14T17:00:32.087Z","updated_at":"2022-10-14T17:00:32.087Z"},{"id":42,"name":"Marlin","category":"slow","price":51507,"image_url":"https://storage.googleapis.com/ck-kitty-image/0x06012c8cf97bead5deae237070f9587f8e7a266d/325086.svg","available":true,"created_at":"2022-10-14T17:00:32.099Z","updated_at":"2022-10-14T17:00:32.099Z"},{"id":43,"name":"Charissa","category":"slow","price":37302,"image_url":"https://storage.googleapis.com/ck-kitty-image/0x06012c8cf97bead5deae237070f9587f8e7a266d/153729.svg","available":true,"created_at":"2022-10-14T17:00:32.107Z","updated_at":"2022-10-14T17:00:32.107Z"},{"id":44,"name":"Ines","category":"fast","price":99737,"image_url":"https://storage.googleapis.com/ck-kitty-image/0x06012c8cf97bead5deae237070f9587f8e7a266d/97498.svg","available":true,"created_at":"2022-10-14T17:00:32.118Z","updated_at":"2022-10-14T17:00:32.118Z"},{"id":45,"name":"Shani","category":"slow","price":62927,"image_url":"https://storage.googleapis.com/ck-kitty-image/0x06012c8cf97bead5deae237070f9587f8e7a266d/222688.svg","available":true,"created_at":"2022-10-14T17:00:32.129Z","updated_at":"2022-10-14T17:00:32.129Z"},{"id":46,"name":"Eleonora","category":"middle","price":17765,"image_url":"https://storage.googleapis.com/ck-kitty-image/0x06012c8cf97bead5deae237070f9587f8e7a266d/347850.svg","available":true,"created_at":"2022-10-14T17:00:32.137Z","updated_at":"2022-10-14T17:00:32.137Z"},{"id":47,"name":"Shani","category":"sub-zero","price":25856,"image_url":"https://storage.googleapis.com/ck-kitty-image/0x06012c8cf97bead5deae237070f9587f8e7a266d/312327.svg","available":true,"created_at":"2022-10-14T17:00:32.145Z","updated_at":"2022-10-14T17:00:32.145Z"},{"id":48,"name":"Shenita","category":"fast","price":36858,"image_url":"https://storage.googleapis.com/ck-kitty-image/0x06012c8cf97bead5deae237070f9587f8e7a266d/246347.svg","available":true,"created_at":"2022-10-14T17:00:32.174Z","updated_at":"2022-10-14T17:00:32.174Z"},{"id":49,"name":"Judson","category":"fast","price":51815,"image_url":"https://storage.googleapis.com/ck-kitty-image/0x06012c8cf97bead5deae237070f9587f8e7a266d/270782.svg","available":true,"created_at":"2022-10-14T17:00:32.194Z","updated_at":"2022-10-14T17:00:32.194Z"},{"id":50,"name":"Homer","category":"sub-zero","price":82340,"image_url":"https://storage.googleapis.com/ck-kitty-image/0x06012c8cf97bead5deae237070f9587f8e7a266d/348563.svg","available":true,"created_at":"2022-10-14T17:00:32.235Z","updated_at":"2022-10-14T17:00:32.235Z"}]}